{
  "project" : {
    "id" : "lt_699_pilot-249193521-DiL",
    "name" : "lt_699_pilot-249193521-DiL",
    "folder" : "/jaicp"
  },
  "settings" : {
    "language" : "ru",
    "spellingCorrection" : false,
    "classificationAlgorithm" : "sts",
    "timezone" : "UTC",
    "shared" : false
  },
  "intents" : [ ],
  "entities" : [ ],
  "enabledSystemEntities" : [ "duckling.number", "duckling.time", "duckling.duration", "duckling.phone-number", "duckling.email", "duckling.url" ],
  "spellerDictionary" : [ ],
  "systemEntities" : [ {
    "name" : "mystem.geo",
    "enabled" : false
  }, {
    "name" : "mystem.persn",
    "enabled" : false
  }, {
    "name" : "mystem.obsc",
    "enabled" : false
  }, {
    "name" : "mystem.patrn",
    "enabled" : false
  }, {
    "name" : "mystem.famn",
    "enabled" : false
  }, {
    "name" : "pymorphy.romn",
    "enabled" : false
  }, {
    "name" : "pymorphy.latn",
    "enabled" : false
  }, {
    "name" : "pymorphy.numb",
    "enabled" : false
  }, {
    "name" : "pymorphy.intg",
    "enabled" : false
  }, {
    "name" : "pymorphy.abbr",
    "enabled" : false
  }, {
    "name" : "pymorphy.name",
    "enabled" : false
  }, {
    "name" : "pymorphy.surn",
    "enabled" : false
  }, {
    "name" : "pymorphy.patr",
    "enabled" : false
  }, {
    "name" : "pymorphy.geox",
    "enabled" : false
  }, {
    "name" : "pymorphy.orgn",
    "enabled" : false
  }, {
    "name" : "duckling.number",
    "version" : "v1",
    "enabled" : true
  }, {
    "name" : "duckling.ordinal",
    "version" : "v1",
    "enabled" : false
  }, {
    "name" : "duckling.amount-of-money",
    "version" : "v1",
    "enabled" : false
  }, {
    "name" : "duckling.distance",
    "version" : "v1",
    "enabled" : false
  }, {
    "name" : "duckling.time",
    "version" : "v1",
    "enabled" : true
  }, {
    "name" : "duckling.date",
    "version" : "v1",
    "enabled" : false
  }, {
    "name" : "duckling.time-of-day",
    "version" : "v1",
    "enabled" : false
  }, {
    "name" : "duckling.duration",
    "version" : "v1",
    "enabled" : true
  }, {
    "name" : "duckling.phone-number",
    "version" : "v1",
    "enabled" : true
  }, {
    "name" : "duckling.email",
    "version" : "v1",
    "enabled" : true
  }, {
    "name" : "duckling.url",
    "version" : "v1",
    "enabled" : true
  }, {
    "name" : "duckling.interval",
    "version" : "v2",
    "enabled" : false
  }, {
    "name" : "mlps-obscene.obscene",
    "enabled" : false
  }, {
    "name" : "zb.datetime",
    "enabled" : false
  }, {
    "name" : "zb.number",
    "enabled" : false
  } ]
}